<?xml version="1.0" encoding="iso-8859-1"?>
<!-- Generator: Adobe Illustrator 16.0.0, SVG Export Plug-In . SVG Version: 6.00 Build 0)  -->
<!DOCTYPE svg PUBLIC "-//W3C//DTD SVG 1.1//EN" "http://www.w3.org/Graphics/SVG/1.1/DTD/svg11.dtd">
<svg xmlns="http://www.w3.org/2000/svg" xmlns:xlink="http://www.w3.org/1999/xlink" version="1.1" id="Capa_1" x="0px" y="0px" width="512px" height="512px" viewBox="0 0 533.333 533.334" style="enable-background:new 0 0 533.333 533.334;" xml:space="preserve">
<g>
	<path d="M0,83.333h533.333v33.333H0V83.333z M100,150h333.333v33.333H100V150z M100,283.333h333.333v33.334H100V283.333z    M100,416.667h333.333V450H100V416.667z M0,216.667h533.333V250H0V216.667z M0,350h533.333v33.333H0V350z" fill="#dddddd"/>
</g>
<g>
</g>
<g>
</g>
<g>
</g>
<g>
</g>
<g>
</g>
<g>
</g>
<g>
</g>
<g>
</g>
<g>
</g>
<g>
</g>
<g>
</g>
<g>
</g>
<g>
</g>
<g>
</g>
<g>
</g>
</svg>
